%YAML 1.1
%TAG !u! tag:unity3d.com,2011:
--- !u!114 &11400000
MonoBehaviour:
  m_ObjectHideFlags: 0
  m_CorrespondingSourceObject: {fileID: 0}
  m_PrefabInstance: {fileID: 0}
  m_PrefabAsset: {fileID: 0}
  m_GameObject: {fileID: 0}
  m_Enabled: 1
  m_EditorHideFlags: 0
  m_Script: {fileID: 11500000, guid: 27d3c800e9bd45b44b1b50b231b605ee, type: 3}
  m_Name: MultiBuildSettings
  m_EditorClassIdentifier: 
  outputFolder: C:/Users/durik/Desktop/UH Storage/Builds
  useProductName: 1
  overrideName: 
  developmentBuild: 0
  targets: 06000000030000000000000001000000
