Type	Priority	Fail Chance	Actor Race	Target Race	Text	Conditional	Success	Notes
EatFood	50		Deathclaw		[ActorName] tore apart a cow.	s.Actor.Needs.Hunger > 1		
EatFood	50		Deathclaw		[ActorName] swallowed an entire pig.	s.Actor.Needs.Hunger > 1		
VoreTeased			Deathclaw		[ActorName] jumps on all fours, bolting in the direction of [TargetName].			
HeadDescription				Deathclaw	[TargetName]'s [TargetCustom-Horn Style] horns stand above [TargetHis] [TargetEyeColor] eyes.			
FeetOralVore			Deathclaw		[ActorName] swallows powerfully, dragging [TargetName] down [ActorHis] esophagus and into [ActorHis] stomach.			
FeetOralVore			Deathclaw		With one final gulp, the form of [TargetName] slides down the deathclaw's body, collecting in the stomach.			
LegOralVore			Deathclaw		[ActorName] swallows [TargetName]'s head, trapping the entire person in [ActorName]'s body.			
LegOralVore			Deathclaw		[ActorName] seals [TargetName]'s head within [ActorHis] jaws.			
TorsoDescription				Deathclaw	[ActorHisCapitalized] [TargetCustom-Scale Color] chest and [TargetBoobSize] boobs are completely open to the air.	[TargetHasBoobs]		
TorsoDescription				Deathclaw	[ActorHisCapitalized] [TargetCustom-Scale Color] chest is fully visible, showing off [TargetHis] upper body.	[TargetHasBoobs] == false		
WaistDescription				Deathclaw	[ActorHisCapitalized] reptilian nethers are on full display.	[TargetHasDick] == false		
WaistDescription				Deathclaw	[ActorHisCapitalized] reptilian member is on full display.	[TargetHasDick]		
HeadOralVore			Deathclaw		[ActorName] carefully inserts [TargetName] into [ActorHis] open mouth, before swallowing them down to the knees with an audible gulp.	[TargetWillingPrey]		
HeadOralVore			Deathclaw		[ActorName] drops [TargetName] feet first into [ActorHis] maw, [TargetHis] legs vanishing down the gullet of the deathclaw.			
HeadOralVore			Deathclaw		[ActorName] drops [TargetName] into [ActorHis] open maw, causing [TargetHis] legs to disappear halfway down [ActorName]'s gullet.			